[
  {
	"question": "Zusammenarbeiten mit dem Kunden ist wichtiger als...",
	"answers": ["Vertragsverhandlungen", "das Befolgen eines Plans", "Prozesse und Werkzeuge", "Umfassende Dokumentation"],
	"correctAnswers": [0],
	"questionType": 0
  },
  {
	"question": "Reagieren auf Veränderungen ist wichtiger als...",
	"answers": ["Umfassende Dokumentation" ,"das Befolgen eines Plans", "Vertragsverhandlungen", "Prozesse und Werkzeuge"],
	"correctAnswers": [1],
	"questionType": 0
  },
  {
	"question": "Individuen und Interaktionen sind wichtiger als...",
	"answers": ["das Befolgen eines Plans", "Prozesse und Werkzeuge", "Vertragsverhandlungen", "Umfassende Dokumentation"],
	"correctAnswers": [1],
	"questionType": 0
  },
  {
	"question": "Funktionierende Software is wichtiger als...",
	"answers": ["Prozesse und Werkzeuge", "das Befolgen eines Plans", "Umfassende Dokumentation", "Vertragsverhandlungen"],
	"correctAnswers": [2],
	"questionType": 0
  },
  {
	"question": "Agile Methoden...",
	"answers": ["sind technologie- und toolorientiert", "verhindern das Fehlschlagen von Projekten", "fördern die Zusammenarbeit der Beteiligten", "fördern das Einhalten eines strikten Projektplans"],
	"correctAnswers": [2],
	"questionType": 0
  },
  {
	"question": "Worauf hat der Product Owner am ehesten Einfluss?",
	"answers": ["Auf die User Stories im Sprint Backlog", "Auf Inhalt und Reihenfolge des Product Backlogs", "Auf die Integrationstests", "Aktives Steuern des Daily Scrum, damit das Scrum Team den Fokus nicht aus den Augen verliert"],
	"correctAnswers": [1],
	"questionType": 0
  },
  {
	"question": "Ordnen sie den Tätigkeiten die richtige Zeitdauer zu:\nSprint Planning Meeting",
	"answers": ["ein Tag", "etwa 4 Stunden", "2-3 Stunden", "15 Minuten"],
	"correctAnswers": [0],
	"questionType": 0
  },
  {
	"question": "Ordnen sie den Tätigkeiten die richtige Zeitdauer zu:\nSprint Retrospektive",
	"answers": ["ein Tag", "etwa 4 Stunden", "2-3 Stunden", "15 Minuten"],
	"correctAnswers": [2],
	"questionType": 0
  },
  {
	"question": "Ordnen sie den Tätigkeiten die richtige Zeitdauer zu:\nDaily",
	"answers": ["ein Tag", "etwa 4 Stunden", "2-3 Stunden", "15 Minuten"],
	"correctAnswers": [3],
	"questionType": 0
  },
  {
	"question": "Ordnen sie den Tätigkeiten die richtige Zeitdauer zu:\nSprint Review",
	"answers": ["ein Tag", "etwa 4 Stunden", "2-3 Stunden", "15 Minuten"],
	"correctAnswers": [1],
	"questionType": 0
  },
  {
	"question": "Agile heisst...",
	"answers": ["Das Team wird bevollmächtigt", "Es wird nichts mehr dokumentiert", "Funktionalität steht im Vordergrund", "Das Management hat nichts mehr zu sagen"],
	"correctAnswers": [0, 2],
	"questionType": 1
  },
  {
	"question": "Ständiges Augenmerk auf technische Exzellenz und gutes ______ fördert Agilität",
	"answers": ["Zeitmanagement", "Resourcenmanagement", "Design"],
	"correctAnswers": [2],
	"questionType": 0
  },
  {
	"question": "______, die Kunst, die Menge nicht getaner Arbeit zu maximieren - ist essenziell",
	"answers": ["Faulheit", "Einfachheit", "Intelligenz"],
	"correctAnswers": [1],
	"questionType": 0
  },
  {
	"question": "Wieviele agile Teams betreut ein Scrum Master?",
	"answers": ["0", "1", "2"],
	"correctAnswers": [1],
	"questionType": 0
  },
  {
	"question": "Meine Meinung zu Agile:\nAgiles Projektmanagement scheint für viele Projekte gut geeignet zu sein",
	"answers": ["stimmt gar nicht", "stimmt wenig", "stimmt ziemlich", "stimmt völlig"],
	"correctAnswers": [],
	"questionType": 0
  },
  {
	"question": "Meine Meinung zu Agile:\nIch könnte mir vorstellen, in einem Agilen Projekt zu arbeiten",
	"answers": ["stimmt gar nicht", "stimmt wenig", "stimmt ziemlich", "stimmt völlig"],
	"correctAnswers": [],
	"questionType": 0
  },
  {
	"question": "Meine Meinung zu Agile:\nAgile Projekte sind im allgemeinen schneller als traditionelle",
	"answers": ["stimmt gar nicht", "stimmt wenig", "stimmt ziemlich", "stimmt völlig"],
	"correctAnswers": [],
	"questionType": 0
  },
  {
	"question": "Meine Meinung zu Agile:\nAgile Projekte sind im allgemeinen komplexer als traditionelle",
	"answers": ["stimmt gar nicht", "stimmt wenig", "stimmt ziemlich", "stimmt völlig"],
	"correctAnswers": [],
	"questionType": 0
  }
]