[
  {
	"question": "Was ist Scrum?",
	"answers": ["Ein Prozess zur agilen Entwicklung von Software", "Ein Rahmenwerk zur Entwicklung und Erhaltung einfacher Produkte", "Ein Leitfaden, der Rollen, Ereignisse, Artefakte und Regeln zur Entwicklung und Erhaltung komplexer Produkte beschreibt", "Eine Technik zur Erstellung von Produkten"],
	"correctAnswers": [2],
	"questionType": 0
  },
  {
	"question": "Welche Fragen sollen beim Daily Scrum von jedem Teammitglied beantwortet werden?",
	"answers": ["Was hast du gestern gemacht?", "Was wirst du heute machen?", "Wann bist du fertig?", "Gibt es bei deiner Arbeit irgendwelche Probleme?"],
	"correctAnswers": [0, 1, 3],
	"questionType": 1
  },
  {
	"question": "Welche davon sind Artefakte in Scrum?",
	"answers": ["Sprint Backlog", "Produktkonzept", "Produkt Inkrement", "Pflichtenheft"],
	"correctAnswers": [0, 2],
	"questionType": 1
  },
  {
	"question": "Welche Aussage bezüglich des Team ist richtig?",
	"answers": ["Ein Team sollte mehr als 20 Mitglieder haben", "Durch das Team wird hauptsächlich der Erfolg von Scrum bewertet", "Ein Entwicklungsteam sollte so autonom arbeiten können, dass das Sprint-Ziel ohne externe Abhängigkeiten erreicht wird"],
	"correctAnswers": [2],
	"questionType": 0
  },
  {
	"question": "Der Scrum Master hat als Aufgabe, den Scrum Prozess zu etablieren. Hierbei gilt:",
	"answers": ["Je weniger er zu tun hat, desto besser funktioniert das Team", "Je weniger er zu tun hat, desto unproduktiver ist das Team", "Nach Scrum ist er nicht befugt, dem Team Anweisungen zu ersteilen", "Jeder muss das machen was der Scrum Master sagt"],
	"correctAnswers": [0, 2],
	"questionType": 1
  },
  {
	"question": "Wer ist für das Product Backlog verantwortlich?",
	"answers": ["Product Owner", "Entwicklungsteam", "Scrum-Team", "Scrum Master"],
	"correctAnswers": [0],
	"questionType": 0
  },
  {
	"question": "Aus was besteht unser Scrum Framework?",
	"answers": ["3 Rollen, 3 Artefakte, 5 Events", "3 Rollen, 4 Artefakte, 5 Events", "3 Rollen, 3 Artefakte, 3 Events", "4 Ausprägungen und 12 Prinzipien"],
	"correctAnswers": [0],
	"questionType": 0
  },
  {
	"question": "Welche Events sind durch Scrum vorgegeben?",
	"answers": ["Sprint, Daily Scrum, Sprint Reviews", "Sprint Retrospektive, Sprint Plannung, Sprint Backlog", "Sprint Reviews, Sprint Retrospektive, Product Backlog", "Daily Scrum, Weekly Scrum"],
	"correctAnswers": [0],
	"questionType": 0
  },
  {
	"question": "Welche Rollen sind durch Scrum vorgegeben?",
	"answers": ["Product Owner, Scrum Master, Team", "Team, Scrum Master, Kunde", "Team, Scrum Master, Projektmanager"],
	"correctAnswers": [0],
	"questionType": 0
  },
  {
	"question": "Welche Artefakte sind durch Scrum vorgegeben?",
	"answers": ["Product Backlog, Sprint Backlog, Produktincrement", "Sprint Reviews, Product Backlog, Sprint Backlog", "Sprint Backlog, Product Backlog, Scrum Master"],
	"correctAnswers": [0],
	"questionType": 0
  }
]